{
    "parentConfig" : "Cube",
    "collection" : "byCarrier",
    "mappings" : {
        "countryName" : "country"
    },
    "uniqueFields" : [
        "isp",
        "country",
        "connectionType"
    ]
}
